{
  "version": "1.0.0-*",
  "description": "Catharsium.Warframe.CompositionRoot Class Library",
  "authors": [ "twbra" ],
  "tags": [ "" ],
  "projectUrl": "",
  "licenseUrl": "",
  "frameworks": {
    "net451": {
      "dependencies": {
        "Autofac": "4.0.0-rc1-177"
      }
    },
    "dotnet5.4": {
      "dependencies": {
        "Microsoft.CSharp": "4.0.1-beta-23516",
        "System.Collections": "4.0.11-beta-23516",
        "System.Linq": "4.0.1-beta-23516",
        "System.Runtime": "4.0.21-beta-23516",
        "System.Threading": "4.0.11-beta-23516",
        "Autofac": "4.0.0-rc1-177"
      }
    }
  },
  "dependencies": {
    "Catharsium.Warframe.Data": "1.0.0-*",
    "Catharsium.Warframe.Entities": "1.0.0-*"
  }
}
